<?xml version="1.0" standalone="no"?>
<!DOCTYPE svg PUBLIC "-//W3C//DTD SVG 20010904//EN"
 "http://www.w3.org/TR/2001/REC-SVG-20010904/DTD/svg10.dtd">
<svg version="1.0" xmlns="http://www.w3.org/2000/svg"
 width="1304.000000pt" height="1304.000000pt" viewBox="0 0 1304.000000 1304.000000"
 preserveAspectRatio="xMidYMid meet">
<metadata>
Created by potrace 1.14, written by Peter Selinger 2001-2017
</metadata>
<g transform="translate(0.000000,1304.000000) scale(0.100000,-0.100000)"
fill="#000000" stroke="none">
<path d="M4757 13029 c-594 -10 -679 -17 -821 -63 -129 -43 -285 -122 -399
-203 -111 -79 -308 -278 -389 -393 -125 -177 -210 -351 -264 -544 -50 -180
-49 -84 -47 -5513 l3 -5051 49 -124 c102 -254 169 -378 296 -547 181 -240 465
-449 735 -541 131 -44 188 -45 2710 -44 l2385 0 90 41 c263 118 482 282 654
488 99 119 241 336 301 460 152 313 155 441 146 5550 -7 3569 -15 4808 -36
5075 -13 162 -48 277 -144 475 -213 435 -532 731 -932 865 -99 33 -144 42
-245 50 -336 27 -2912 39 -4092 19z m4593 -5919 l0 -4300 -2895 0 -2895 0 0
4293 c0 2362 3 4297 7 4300 3 4 1306 7 2895 7 l2888 0 0 -4300z m-1762 -5712
l-3 -303 -1130 0 -1130 0 -3 303 -2 302 1135 0 1135 0 -2 -302z"/>
<path d="M6205 10609 c-239 -31 -662 -205 -998 -410 -72 -44 -156 -94 -188
-109 -103 -52 -422 -362 -551 -535 -37 -50 -95 -139 -129 -200 -122 -218 -185
-319 -230 -369 -56 -61 -94 -135 -164 -316 -157 -406 -156 -398 -162 -929 -7
-611 12 -987 63 -1246 84 -424 295 -908 571 -1303 187 -269 479 -583 725 -779
361 -289 783 -501 1138 -572 90 -18 455 -61 515 -60 19 0 19 1 -3 19 -27 23
-83 40 -130 40 -60 0 -185 31 -287 71 -119 46 -217 104 -317 188 -43 37 -88
66 -112 72 -60 16 -182 81 -254 133 -46 34 -64 54 -69 76 -6 31 -22 47 -110
109 -26 18 -68 58 -92 88 -47 57 -90 87 -115 77 -22 -8 -90 59 -157 156 -33
48 -89 120 -125 161 -109 123 -244 340 -244 392 0 24 -30 79 -62 114 -13 14
-22 39 -23 65 -2 30 -23 82 -73 179 -39 75 -68 139 -65 143 3 3 23 3 45 0 48
-8 48 -1 3 85 -49 92 -112 161 -183 199 -121 65 -176 174 -222 444 -12 67 -38
206 -58 308 -33 170 -36 198 -35 355 1 174 22 455 49 648 20 143 50 244 123
411 66 149 111 281 111 322 0 32 22 64 126 184 138 159 373 380 513 483 33 25
103 68 156 96 74 41 95 56 95 73 0 75 266 214 445 233 49 6 63 10 51 17 -9 5
-16 15 -16 22 0 17 119 83 271 149 214 94 198 92 644 92 428 0 520 -9 715 -70
413 -130 811 -507 1044 -990 106 -220 148 -379 167 -640 15 -202 6 -676 -15
-789 -18 -97 -62 -186 -127 -260 -53 -59 -88 -125 -89 -167 0 -60 -104 -173
-285 -309 -98 -73 -160 -110 -187 -110 -9 0 -46 -20 -82 -44 -89 -62 -131 -82
-230 -111 -148 -42 -260 -58 -416 -58 -177 0 -290 26 -445 102 -343 169 -604
508 -691 901 -12 51 -17 121 -17 220 0 160 14 232 73 373 98 235 324 451 570
544 137 51 218 66 365 66 151 0 258 -21 389 -79 44 -20 96 -42 114 -50 53 -23
36 -3 -51 63 -110 82 -194 126 -302 159 -83 25 -103 27 -265 28 -159 0 -184
-3 -274 -27 -118 -32 -239 -89 -318 -152 -32 -25 -107 -107 -168 -182 -92
-115 -123 -162 -180 -278 -138 -282 -175 -485 -135 -735 19 -116 74 -282 121
-370 118 -216 432 -535 651 -660 161 -92 387 -136 663 -127 192 6 294 23 458
78 242 80 418 186 672 405 75 65 133 104 154 104 9 0 17 13 21 35 3 19 8 52
11 73 7 48 48 119 73 127 11 3 29 0 41 -7 35 -21 41 -9 147 292 30 85 66 200
80 255 24 95 46 140 64 129 25 -15 67 115 76 238 5 70 2 95 -12 130 -10 25
-21 88 -25 153 -6 78 -16 134 -35 189 -28 81 -27 100 3 73 10 -10 22 -14 25
-10 29 28 -30 250 -85 323 -71 93 -78 106 -78 137 0 38 27 61 82 70 54 8 97
-36 148 -155 24 -53 45 -99 48 -102 2 -3 2 63 -1 145 -11 317 -106 494 -462
863 -170 176 -427 402 -458 402 -5 0 -6 -11 -3 -25 4 -17 2 -25 -6 -25 -20 0
-87 48 -154 110 -68 63 -112 80 -211 80 -78 1 -212 31 -352 81 -275 97 -320
111 -392 129 -68 16 -83 16 -155 4 -97 -17 -298 -32 -347 -26 -22 2 -37 10
-37 18 0 23 -31 31 -133 36 -54 3 -100 8 -104 11 -3 4 -1 13 5 20 24 28 1 31
-123 16z"/>
<path d="M6725 10589 c-10 -15 3 -25 16 -12 7 7 7 13 1 17 -6 3 -14 1 -17 -5z"/>
<path d="M3890 9156 c-18 -50 11 -74 44 -37 23 25 17 55 -12 59 -16 3 -25 -3
-32 -22z"/>
<path d="M9170 8664 c0 -22 2 -24 14 -14 8 6 12 18 9 26 -9 23 -23 16 -23 -12z"/>
<path d="M3720 8565 c0 -28 4 -44 10 -40 6 3 10 21 10 40 0 19 -4 37 -10 40
-6 4 -10 -12 -10 -40z"/>
<path d="M7837 7903 c-18 -17 2 -123 23 -123 16 0 26 82 14 114 -6 16 -26 21
-37 9z"/>
<path d="M7580 7304 c0 -9 5 -14 12 -12 18 6 21 28 4 28 -9 0 -16 -7 -16 -16z"/>
<path d="M7641 7264 c-15 -19 -18 -31 -11 -38 14 -14 44 4 48 29 7 32 -14 38
-37 9z"/>
<path d="M7060 7043 c-52 -7 -56 -18 -13 -39 24 -11 60 -18 98 -18 62 0 144
29 128 45 -10 10 -164 19 -213 12z"/>
<path d="M5927 6903 c-12 -11 -8 -23 8 -23 8 0 15 7 15 15 0 16 -12 20 -23 8z"/>
<path d="M5790 6799 c0 -35 133 -230 147 -215 11 11 -118 226 -137 226 -5 0
-10 -5 -10 -11z"/>
<path d="M5990 6684 c-1 -41 231 -273 238 -239 4 17 28 20 37 6 3 -6 -2 -14
-12 -19 -39 -22 342 -235 537 -299 154 -51 290 -75 400 -71 54 2 106 10 120
17 24 14 24 14 3 22 -12 4 -97 15 -190 23 -209 20 -278 36 -373 88 -41 23
-141 76 -221 118 -80 42 -168 93 -194 113 -47 36 -61 41 -98 37 -25 -2 -78 40
-169 135 -43 44 -78 75 -78 69z"/>
</g>
</svg>
